^C:\USERS\TRUNG\DOCUMENTS\VISUAL STUDIO 2010\PROJECTS\CSE-167-FINAL-PROJECT\TESTFRAMEWORK\BEZIERTEST\MAIN.CPP
C:\USERS\TRUNG\DOCUMENTS\VISUAL STUDIO 2010\PROJECTS\CSE-167-FINAL-PROJECT\TESTFRAMEWORK\BEZIERTEST\DEBUG\MAIN.OBJ
C:\USERS\TRUNG\DOCUMENTS\VISUAL STUDIO 2010\PROJECTS\CSE-167-FINAL-PROJECT\TESTFRAMEWORK\BEZIERTEST\DEBUG\VC100.PDB
